[
   {
      "id":"manualBrightness",
      "category":"Actors",
      "name":"Manual brightness",
      "weight":1,
      "stage":"Feature refinement"
   },
   {
      "id":"notificationLed",
      "category":"Actors",
      "name":"Notification LED",
      "weight":1,
      "stage":"Daily-driver ready"
   },
   {
      "id":"torchlight",
      "category":"Actors",
      "name":"Torchlight",
      "weight":1,
      "stage":"Daily-driver ready"
   },
   {
      "id":"vibration",
      "category":"Actors",
      "name":"Vibration",
      "weight":1,
      "stage":"Feature refinement"
   },
   {
      "id":"flashlight",
      "category":"Camera",
      "name":"Flashlight",
      "weight":1,
      "stage":"Feature refinement"
   },
   {
      "id":"photo",
      "category":"Camera",
      "name":"Photo",
      "weight":1,
      "stage":"Feature refinement"
   },
   {
      "id":"video",
      "category":"Camera",
      "name":"Video",
      "weight":1,
      "stage":"Feature refinement"
   },
   {
      "id":"switchCamera",
      "category":"Camera",
      "name":"Switching between cameras",
      "weight":1,
      "stage":"Feature refinement"
   },
   {
      "id":"carrierInfo",
      "category":"Cellular",
      "name":"Carrier info, signal strength",
      "weight":1,
      "stage":"Development"
   },
   {
      "id":"dataConnection",
      "category":"Cellular",
      "name":"Data connection",
      "weight":1,
      "stage":"Development"
   },
   {
      "id":"calls",
      "category":"Cellular",
      "name":"Incoming, outgoing calls",
      "weight":1,
      "stage":"Development"
   },
   {
      "id":"mms",
      "category":"Cellular",
      "name":"MMS in, out",
      "weight":1,
      "stage":"Feature refinement"
   },
   {
      "id":"pinUnlock",
      "category":"Cellular",
      "name":"PIN unlock",
      "weight":1,
      "stage":"Feature refinement"
   },
   {
      "id":"sms",
      "category":"Cellular",
      "name":"SMS in, out",
      "weight":1,
      "stage":"Development"
   },
   {
      "id":"audioRoutings",
      "category":"Cellular",
      "name":"Change audio routings",
      "weight":1,
      "stage":"Feature refinement"
   },
   {
      "id":"voiceCall",
      "category":"Cellular",
      "name":"Voice in calls",
      "weight":1,
      "stage":"Development"
   },
   {
      "id":"batteryLifetimeTest",
      "category":"Endurance",
      "name":"Battery lifetime > 24h from 100%",
      "weight":1,
      "stage":"Daily-driver ready"
   },
   {
      "id":"noRebootTest",
      "category":"Endurance",
      "name":"No reboot needed for 1 week",
      "weight":1,
      "stage":"Daily-driver ready"
   },
   {
      "id":"uiBoot",
      "category":"GPU",
      "name":"Boot into UI",
      "weight":1,
      "stage":"Early Development"
   },
   {
      "id":"videoAcceleration",
      "category":"GPU",
      "name":"Hardware video playback",
      "weight":1,
      "stage":"Daily-driver ready"
   },
   {
      "id":"anboxPatches",
      "category":"Misc",
      "name":"Anbox patches",
      "weight":1,
      "stage":"Optional"
   },
   {
      "id":"apparmorPatches",
      "category":"Misc",
      "name":"AppArmor patches",
      "weight":1,
      "stage":"Early Development"
   },
   {
      "id":"batteryPercentage",
      "category":"Misc",
      "name":"Battery percentage",
      "weight":1,
      "stage":"Development"
   },
   {
      "id":"offlineCharging",
      "category":"Misc",
      "name":"Offline charging",
      "weight":1,
      "stage":"Development"
   },
   {
      "id":"onlineCharging",
      "category":"Misc",
      "name":"Online charging",
      "weight":1,
      "stage":"Development"
   },
   {
      "id":"recoveryImage",
      "category":"Misc",
      "name":"Recovery image",
      "weight":1,
      "stage":"Daily-driver ready"
   },
   {
      "id":"factoryReset",
      "category":"Misc",
      "name":"Reset to factory defaults",
      "weight":1,
      "stage":"Daily-driver ready"
   },
   {
      "id":"rtcTime",
      "category":"Misc",
      "name":"RTC time",
      "weight":1,
      "stage":"Feature refinement"
   },
   {
      "id":"sdCard",
      "category":"Misc",
      "name":"SD card detection and access",
      "weight":1,
      "stage":"Feature refinement"
   },
   {
      "id":"shutdown",
      "category":"Misc",
      "name":"Shutdown / Reboot",
      "weight":1,
      "stage":"Early Development"
   },
   {
      "id":"wirelessCharging",
      "category":"Misc",
      "name":"Wireless charging",
      "weight":1,
      "stage":"Optional"
   },
   {
      "id":"wirelessExternalMonitor",
      "category":"Misc",
      "name":"Wireless External monitor",
      "weight":1,
      "stage":"Optional"
   },
   {
      "id":"bluetooth",
      "category":"Network",
      "name":"Bluetooth",
      "weight":1,
      "stage":"Feature refinement"
   },
   {
      "id":"flightMode",
      "category":"Network",
      "name":"Flight mode",
      "weight":1,
      "stage":"Feature refinement"
   },
   {
      "id":"hotspot",
      "category":"Network",
      "name":"Hotspot",
      "weight":1,
      "stage":"Feature refinement"
   },
   {
      "id":"nfc",
      "category":"Network",
      "name":"NFC",
      "weight":1,
      "stage":"Optional"
   },
   {
      "id":"wifi",
      "category":"Network",
      "name":"WiFi",
      "weight":1,
      "stage":"Development"
   },
   {
      "id":"autoBrightness",
      "category":"Sensors",
      "name":"Automatic brightness",
      "weight":1,
      "stage":"Feature refinement"
   },
   {
      "id":"fingerprint",
      "category":"Sensors",
      "name":"Fingerprint reader",
      "weight":1,
      "stage":"Optional"
   },
   {
      "id":"gps",
      "category":"Sensors",
      "name":"GPS",
      "weight":1,
      "stage":"Feature refinement"
   },
   {
      "id":"proximity",
      "category":"Sensors",
      "name":"Proximity",
      "weight":1,
      "stage":"Feature refinement"
   },
   {
      "id":"rotation",
      "category":"Sensors",
      "name":"Rotation",
      "weight":1,
      "stage":"Feature refinement"
   },
   {
      "id":"touchscreen",
      "category":"Sensors",
      "name":"Touchscreen",
      "weight":1,
      "stage":"Early Development"
   },
   {
      "id":"earphones",
      "category":"Sound",
      "name":"Earphones",
      "weight":1,
      "stage":"Feature refinement"
   },
   {
      "id":"loudspeaker",
      "category":"Sound",
      "name":"Loudspeaker",
      "weight":1,
      "stage":"Feature refinement"
   },
   {
      "id":"microphone",
      "category":"Sound",
      "name":"Microphone",
      "weight":1,
      "stage":"Feature refinement"
   },
   {
      "id":"volumeControl",
      "category":"Sound",
      "name":"Volume control",
      "weight":1,
      "stage":"Feature refinement"
   },
   {
      "id":"mtp",
      "category":"USB",
      "name":"MTP access",
      "weight":1,
      "stage":"Feature refinement"
   },
   {
      "id":"adb",
      "category":"USB",
      "name":"ADB access",
      "weight":1,
      "stage":"Feature refinement"
   },
   {
      "id":"wiredExternalMonitor",
      "category":"USB",
      "name":"Wired External monitor",
      "weight":1,
      "stage":"Optional"
   }
]
